Лабораторная по многомерной статистике
…
Отсюда вывод: достаточно было использовать только два кластера.

Задание 3

Загрузим данные:

datacrude = data.frame(read_excel("Приложение 1.xlsx"))
data = datacrude[, -c(1)]
data = data[, -c(1, 2, 16, 17)]
data_frame(data)

## # A tibble: 53 x 1
##    data$Y3   $X4   $X5   $X6    $X7   $X8   $X9  $X10   $X11  $X12   $X13
##      <dbl> <dbl> <dbl> <dbl>  <dbl> <dbl> <dbl> <dbl>  <dbl> <dbl>  <dbl>
##  1   13.3   0.89  0.34  1.73 31      0.28  0.89  0.14 1.12e5 166.  9.89e3
##  2   10.2   0.93  0.33  0.99  0.15   0.25  1.8   0.3  3.76e4 186.  2.21e4
##  3   13.7   1.33  0.17  1.73  0.14   0.47  1.53  0.31 4.52e4 220.  1.08e4
##  4   12.8   0.68  0.32  0.47  0.18   1.53  0.6   0.18 7.67e4 169.  1.03e4
##  5   10.6   0.89  0.36  1.73  0.31   0.21  1.39  0.37 7.36e3  39.9 5.53e4
##  6    9.12  1.53  0.33  1.33  0.17   0.13  1.24  0.19 8.45e4  40.4 4.53e4
##  7   26.0   1.12  0.15  0.97  0.26   0.38  1.77  0.41 1.14e5 103.  1.27e4
##  8   23.4   0.99  0.32  1.82  0.290  0.38  0.09  0.36 7.80e3  37.0 5.76e4
##  9   14.7   1.65  0.31  0.68  0.26   0.2   0.52  0.41 8.45e4  45.9 1.18e5
## 10   10.0   0.56  0.15  1.8   0.28   0.35  0.8   2.06 3.59e4  40.1 6.44e4
## # ... with 43 more rows, and 2 more variables: $X14 <dbl>, $X15 <dbl>
…
